<svg width="644" height="625" viewBox="0 0 644 625" fill="none" xmlns="http://www.w3.org/2000/svg">
<path d="M567.94 200.58C713.07 271.37 619.66 401.16 508.436 456.159C445.979 490.4 473.227 573.131 395.813 615.512C318.399 657.892 313.384 520.76 192.985 583.889C72.5858 647.019 -49.0906 456.946 22.4827 372.066C94.0559 287.187 46.5074 285.903 57.3488 147.427C68.1902 8.95062 278.901 -54.5013 339.98 61.4204C401.059 177.342 410.834 123.95 567.94 200.58Z" stroke="url(#paint0_linear_572_9617)" stroke-width="2"/>
<defs>
<linearGradient id="paint0_linear_572_9617" x1="613.303" y1="419.758" x2="12.9779" y2="60.7809" gradientUnits="userSpaceOnUse">
<stop stop-color="white" stop-opacity="0.1"/>
<stop offset="0.229847" stop-color="#1CA0CA"/>
<stop offset="1" stop-color="white" stop-opacity="0"/>
</linearGradient>
</defs>
</svg>
