<svg width="611" height="609" viewBox="0 0 611 609" fill="none" xmlns="http://www.w3.org/2000/svg">
<path d="M512.356 119.719C670.116 154.156 610.07 302.363 515.019 382.12C462.439 430.167 508.489 504.101 443.302 563.596C378.115 623.091 340.793 491.04 238.751 580.866C136.709 670.693 -26.4878 514.809 22.9682 415.404C72.4241 315.999 25.9222 326.003 3.68848 188.894C-18.5452 51.785 171.167 -59.7246 257.941 38.4521C344.716 136.629 341.579 82.4397 512.356 119.719Z" stroke="url(#paint0_linear_577_4174)" stroke-width="2"/>
<defs>
<linearGradient id="paint0_linear_577_4174" x1="608.295" y1="321.938" x2="-59.925" y2="115.208" gradientUnits="userSpaceOnUse">
<stop stop-color="white" stop-opacity="0.1"/>
<stop offset="0.229847" stop-color="#1CA0CA"/>
<stop offset="1" stop-color="white" stop-opacity="0"/>
</linearGradient>
</defs>
</svg>
