<svg width="649" height="631" viewBox="0 0 649 631" fill="none" xmlns="http://www.w3.org/2000/svg">
<path d="M627.688 396.41C702.69 539.409 550.552 588.652 428.361 567.085C357.758 557.678 330.708 640.474 243.233 628.766C155.757 617.059 232.943 503.6 98.5441 483.148C-35.8545 462.697 -21.3048 237.483 86.6378 211.49C194.58 185.497 157.031 156.299 247.788 51.1499C338.546 -53.9992 545.9 19.6859 526.448 149.263C506.996 278.839 546.498 241.611 627.688 396.41Z" stroke="url(#paint0_linear_623_4538)" stroke-width="2"/>
<defs>
<linearGradient id="paint0_linear_623_4538" x1="534.414" y1="599.872" x2="263.361" y2="-44.9429" gradientUnits="userSpaceOnUse">
<stop stop-color="white" stop-opacity="0.1"/>
<stop offset="0.229847" stop-color="#1CA0CA"/>
<stop offset="1" stop-color="white" stop-opacity="0"/>
</linearGradient>
</defs>
</svg>
