<svg width="613" height="608" viewBox="0 0 613 608" fill="none" xmlns="http://www.w3.org/2000/svg">
<path d="M506.271 91.289C666.369 112.326 619.01 265.061 531.01 352.535C482.66 404.837 534.769 474.632 474.821 539.403C414.873 604.174 366.569 475.733 272.449 573.829C178.33 671.925 2.59203 530.33 43.5059 427.115C84.4198 323.901 38.9249 337.783 5.23011 203.032C-28.4647 68.2804 151.189 -58.8008 245.919 31.724C340.648 122.249 332.962 68.516 506.271 91.289Z" stroke="url(#paint0_linear_554_8665)" stroke-width="2"/>
<defs>
<linearGradient id="paint0_linear_554_8665" x1="618.889" y1="284.716" x2="-64.3596" y2="134.961" gradientUnits="userSpaceOnUse">
<stop stop-color="white" stop-opacity="0.1"/>
<stop offset="0.229847" stop-color="#1CA0CA"/>
<stop offset="1" stop-color="white" stop-opacity="0"/>
</linearGradient>
</defs>
</svg>
